G0 X450.00 Y350.00 Z20.00 F2500 
G1 X450.00 Y350.00 Z10.00 F3000
G1 X449.90 Y354.46 Z10.00 F3000
G1 X449.60 Y358.99 Z10.00 F3000
G1 X449.08 Y363.57 Z10.00 F3000
G1 X448.33 Y368.20 Z10.00 F3000
G1 X447.35 Y372.85 Z10.00 F3000
G1 X446.14 Y377.52 Z10.00 F3000
G1 X444.68 Y382.17 Z10.00 F3000
G1 X442.98 Y386.81 Z10.00 F3000
G1 X441.03 Y391.40 Z10.00 F3000
G1 X438.83 Y395.93 Z10.00 F3000
G1 X436.38 Y400.38 Z10.00 F3000
G1 X433.70 Y404.72 Z10.00 F3000
G1 X430.78 Y408.95 Z10.00 F3000
G1 X427.64 Y413.03 Z10.00 F3000
G1 X424.27 Y416.96 Z10.00 F3000
G1 X420.71 Y420.71 Z10.00 F3000
G1 X416.96 Y424.27 Z10.00 F3000
G1 X413.03 Y427.64 Z10.00 F3000
G1 X408.95 Y430.78 Z10.00 F3000
G1 X404.72 Y433.70 Z10.00 F3000
G1 X400.38 Y436.38 Z10.00 F3000
G1 X395.93 Y438.83 Z10.00 F3000
G1 X391.40 Y441.03 Z10.00 F3000
G1 X386.81 Y442.98 Z10.00 F3000
G1 X382.17 Y444.68 Z10.00 F3000
G1 X377.52 Y446.14 Z10.00 F3000
G1 X372.85 Y447.35 Z10.00 F3000
G1 X368.20 Y448.33 Z10.00 F3000
G1 X363.57 Y449.08 Z10.00 F3000
G1 X358.99 Y449.60 Z10.00 F3000
G1 X354.46 Y449.90 Z10.00 F3000
G1 X350.00 Y450.00 Z10.00 F3000
G1 X344.60 Y447.99 Z10.00 F3000
G1 X338.72 Y445.25 Z10.00 F3000
G1 X332.38 Y441.73 Z10.00 F3000
G1 X325.65 Y437.42 Z10.00 F3000
G1 X318.61 Y432.34 Z10.00 F3000
G1 X311.35 Y426.53 Z10.00 F3000
G1 X303.98 Y420.05 Z10.00 F3000
G1 X296.61 Y412.98 Z10.00 F3000
G1 X289.37 Y405.44 Z10.00 F3000
G1 X282.37 Y397.55 Z10.00 F3000
G1 X275.71 Y389.44 Z10.00 F3000
G1 X269.48 Y381.25 Z10.00 F3000
G1 X263.75 Y373.10 Z10.00 F3000
G1 X258.58 Y365.11 Z10.00 F3000
G1 X253.99 Y357.38 Z10.00 F3000
G1 X250.00 Y350.00 Z10.00 F3000
G1 X250.10 Y345.54 Z10.00 F3000
G1 X250.40 Y341.01 Z10.00 F3000
G1 X250.92 Y336.43 Z10.00 F3000
G1 X251.67 Y331.80 Z10.00 F3000
G1 X252.65 Y327.15 Z10.00 F3000
G1 X253.86 Y322.48 Z10.00 F3000
G1 X255.32 Y317.83 Z10.00 F3000
G1 X257.02 Y313.19 Z10.00 F3000
G1 X258.97 Y308.60 Z10.00 F3000
G1 X261.17 Y304.07 Z10.00 F3000
G1 X263.62 Y299.62 Z10.00 F3000
G1 X266.30 Y295.28 Z10.00 F3000
G1 X269.22 Y291.05 Z10.00 F3000
G1 X272.36 Y286.97 Z10.00 F3000
G1 X275.73 Y283.04 Z10.00 F3000
G1 X279.29 Y279.29 Z10.00 F3000
G1 X283.04 Y275.73 Z10.00 F3000
G1 X286.97 Y272.36 Z10.00 F3000
G1 X291.05 Y269.22 Z10.00 F3000
G1 X295.28 Y266.30 Z10.00 F3000
G1 X299.62 Y263.62 Z10.00 F3000
G1 X304.07 Y261.17 Z10.00 F3000
G1 X308.60 Y258.97 Z10.00 F3000
G1 X313.19 Y257.02 Z10.00 F3000
G1 X317.83 Y255.32 Z10.00 F3000
G1 X322.48 Y253.86 Z10.00 F3000
G1 X327.15 Y252.65 Z10.00 F3000
G1 X331.80 Y251.67 Z10.00 F3000
G1 X336.43 Y250.92 Z10.00 F3000
G1 X341.01 Y250.40 Z10.00 F3000
G1 X345.54 Y250.10 Z10.00 F3000
G1 X354.46 Y250.10 Z10.00 F3000
G1 X358.99 Y250.40 Z10.00 F3000
G1 X363.57 Y250.92 Z10.00 F3000
G1 X368.20 Y251.67 Z10.00 F3000
G1 X372.85 Y252.65 Z10.00 F3000
G1 X377.52 Y253.86 Z10.00 F3000
G1 X382.17 Y255.32 Z10.00 F3000
G1 X386.81 Y257.02 Z10.00 F3000
G1 X391.40 Y258.97 Z10.00 F3000
G1 X395.93 Y261.17 Z10.00 F3000
G1 X400.38 Y263.62 Z10.00 F3000
G1 X404.72 Y266.30 Z10.00 F3000
G1 X408.95 Y269.22 Z10.00 F3000
G1 X413.03 Y272.36 Z10.00 F3000
G1 X416.96 Y275.73 Z10.00 F3000
G1 X420.71 Y279.29 Z10.00 F3000
G1 X424.27 Y283.04 Z10.00 F3000
G1 X427.64 Y286.97 Z10.00 F3000
G1 X430.78 Y291.05 Z10.00 F3000
G1 X433.70 Y295.28 Z10.00 F3000
G1 X436.38 Y299.62 Z10.00 F3000
G1 X438.83 Y304.07 Z10.00 F3000
G1 X441.03 Y308.60 Z10.00 F3000
G1 X442.98 Y313.19 Z10.00 F3000
G1 X444.68 Y317.83 Z10.00 F3000
G1 X446.14 Y322.48 Z10.00 F3000
G1 X447.35 Y327.15 Z10.00 F3000
G1 X448.33 Y331.80 Z10.00 F3000
G1 X449.08 Y336.43 Z10.00 F3000
G1 X449.60 Y341.01 Z10.00 F3000
G1 X449.90 Y345.54 Z10.00 F3000
G1 X450.00 Y350.00 Z10.00 F3000
G0 X450.00 Y350.00 Z20.00 F2500
G0 X511.69 Y425.24 Z20.00 F2500
G1 X511.69 Y425.24 Z10.00 F3000
G1 X513.81 Y428.13 Z10.00 F3000
G1 X515.72 Y431.30 Z10.00 F3000
G1 X517.37 Y434.74 Z10.00 F3000
G1 X518.71 Y438.41 Z10.00 F3000
G1 X519.71 Y442.27 Z10.00 F3000
G1 X520.32 Y446.28 Z10.00 F3000
G1 X520.51 Y450.37 Z10.00 F3000
G1 X520.29 Y454.49 Z10.00 F3000
G1 X519.64 Y458.55 Z10.00 F3000
G1 X518.58 Y462.51 Z10.00 F3000
G1 X517.13 Y466.30 Z10.00 F3000
G1 X515.34 Y469.86 Z10.00 F3000
G1 X513.25 Y473.17 Z10.00 F3000
G1 X510.91 Y476.18 Z10.00 F3000
G1 X508.37 Y478.87 Z10.00 F3000
G1 X505.69 Y481.24 Z10.00 F3000
G1 X502.80 Y483.36 Z10.00 F3000
G1 X499.63 Y485.27 Z10.00 F3000
G1 X496.19 Y486.92 Z10.00 F3000
G1 X492.52 Y488.27 Z10.00 F3000
G1 X488.66 Y489.26 Z10.00 F3000
G1 X484.65 Y489.87 Z10.00 F3000
G1 X480.56 Y490.07 Z10.00 F3000
G1 X476.45 Y489.84 Z10.00 F3000
G1 X472.38 Y489.19 Z10.00 F3000
G1 X468.42 Y488.13 Z10.00 F3000
G1 X464.63 Y486.69 Z10.00 F3000
G1 X461.07 Y484.90 Z10.00 F3000
G1 X457.76 Y482.81 Z10.00 F3000
G1 X454.76 Y480.47 Z10.00 F3000
G1 X452.06 Y477.93 Z10.00 F3000
G1 X449.69 Y475.24 Z10.00 F3000
G1 X447.57 Y472.36 Z10.00 F3000
G1 X445.66 Y469.18 Z10.00 F3000
G1 X444.01 Y465.75 Z10.00 F3000
G1 X442.66 Y462.08 Z10.00 F3000
G1 X441.67 Y458.21 Z10.00 F3000
G1 X441.06 Y454.20 Z10.00 F3000
G1 X440.86 Y450.11 Z10.00 F3000
G1 X441.09 Y446.00 Z10.00 F3000
G1 X441.74 Y441.93 Z10.00 F3000
G1 X442.80 Y437.98 Z10.00 F3000
G1 X444.24 Y434.19 Z10.00 F3000
G1 X446.03 Y430.62 Z10.00 F3000
G1 X448.12 Y427.32 Z10.00 F3000
G1 X450.47 Y424.31 Z10.00 F3000
G1 X453.00 Y421.61 Z10.00 F3000
G1 X455.69 Y419.24 Z10.00 F3000
G1 X458.06 Y429.80 Z10.00 F3000
G1 X460.76 Y439.63 Z10.00 F3000
G1 X463.76 Y448.51 Z10.00 F3000
G1 X467.07 Y456.23 Z10.00 F3000
G1 X468.82 Y459.59 Z10.00 F3000
G1 X470.63 Y462.58 Z10.00 F3000
G1 X472.50 Y465.19 Z10.00 F3000
G1 X474.42 Y467.38 Z10.00 F3000
G1 X476.38 Y469.16 Z10.00 F3000
G1 X478.38 Y470.50 Z10.00 F3000
G1 X480.40 Y471.40 Z10.00 F3000
G1 X482.45 Y471.85 Z10.00 F3000
G1 X484.50 Y471.84 Z10.00 F3000
G1 X486.56 Y471.38 Z10.00 F3000
G1 X488.61 Y470.47 Z10.00 F3000
G1 X490.65 Y469.12 Z10.00 F3000
G1 X492.67 Y467.35 Z10.00 F3000
G1 X494.66 Y465.15 Z10.00 F3000
G1 X496.61 Y462.57 Z10.00 F3000
G1 X498.52 Y459.60 Z10.00 F3000
G1 X500.39 Y456.28 Z10.00 F3000
G1 X502.19 Y452.63 Z10.00 F3000
G1 X505.63 Y444.44 Z10.00 F3000
G1 X508.80 Y435.24 Z10.00 F3000
G1 X511.69 Y425.24 Z10.00 F3000
G0 X511.69 Y425.24 Z20.00 F2500
G0 X511.69 Y425.24 Z20.00 F2500
G1 X511.69 Y425.24 Z10.00 F3000
G1 X513.81 Y428.13 Z10.00 F3000
G1 X515.72 Y431.30 Z10.00 F3000
G1 X517.37 Y434.74 Z10.00 F3000
G1 X518.71 Y438.41 Z10.00 F3000
G1 X519.71 Y442.27 Z10.00 F3000
G1 X520.32 Y446.28 Z10.00 F3000
G1 X520.51 Y450.37 Z10.00 F3000
G1 X520.29 Y454.49 Z10.00 F3000
G1 X519.64 Y458.55 Z10.00 F3000
G1 X518.58 Y462.51 Z10.00 F3000
G1 X517.13 Y466.30 Z10.00 F3000
G1 X515.34 Y469.86 Z10.00 F3000
G1 X513.25 Y473.17 Z10.00 F3000
G1 X510.91 Y476.18 Z10.00 F3000
G1 X508.37 Y478.87 Z10.00 F3000
G1 X505.69 Y481.24 Z10.00 F3000
G1 X502.80 Y483.36 Z10.00 F3000
G1 X499.63 Y485.27 Z10.00 F3000
G1 X496.19 Y486.92 Z10.00 F3000
G1 X492.52 Y488.27 Z10.00 F3000
G1 X488.66 Y489.26 Z10.00 F3000
G1 X484.65 Y489.87 Z10.00 F3000
G1 X480.56 Y490.07 Z10.00 F3000
G1 X476.45 Y489.84 Z10.00 F3000
G1 X472.38 Y489.19 Z10.00 F3000
G1 X468.42 Y488.13 Z10.00 F3000
G1 X464.63 Y486.69 Z10.00 F3000
G1 X461.07 Y484.90 Z10.00 F3000
G1 X457.76 Y482.81 Z10.00 F3000
G1 X454.76 Y480.47 Z10.00 F3000
G1 X452.06 Y477.93 Z10.00 F3000
G1 X449.69 Y475.24 Z10.00 F3000
G1 X447.57 Y472.36 Z10.00 F3000
G1 X445.66 Y469.18 Z10.00 F3000
G1 X444.01 Y465.75 Z10.00 F3000
G1 X442.66 Y462.08 Z10.00 F3000
G1 X441.67 Y458.21 Z10.00 F3000
G1 X441.06 Y454.20 Z10.00 F3000
G1 X440.86 Y450.11 Z10.00 F3000
G1 X441.09 Y446.00 Z10.00 F3000
G1 X441.74 Y441.93 Z10.00 F3000
G1 X442.80 Y437.98 Z10.00 F3000
G1 X444.24 Y434.19 Z10.00 F3000
G1 X446.03 Y430.62 Z10.00 F3000
G1 X448.12 Y427.32 Z10.00 F3000
G1 X450.47 Y424.31 Z10.00 F3000
G1 X453.00 Y421.61 Z10.00 F3000
G1 X455.69 Y419.24 Z10.00 F3000
G1 X458.06 Y429.80 Z10.00 F3000
G1 X460.76 Y439.63 Z10.00 F3000
G1 X463.76 Y448.51 Z10.00 F3000
G1 X467.07 Y456.23 Z10.00 F3000
G1 X468.82 Y459.59 Z10.00 F3000
G1 X470.63 Y462.58 Z10.00 F3000
G1 X472.50 Y465.19 Z10.00 F3000
G1 X474.42 Y467.38 Z10.00 F3000
G1 X476.38 Y469.16 Z10.00 F3000
G1 X478.38 Y470.50 Z10.00 F3000
G1 X480.40 Y471.40 Z10.00 F3000
G1 X482.45 Y471.85 Z10.00 F3000
G1 X484.50 Y471.84 Z10.00 F3000
G1 X486.56 Y471.38 Z10.00 F3000
G1 X488.61 Y470.47 Z10.00 F3000
G1 X490.65 Y469.12 Z10.00 F3000
G1 X492.67 Y467.35 Z10.00 F3000
G1 X494.66 Y465.15 Z10.00 F3000
G1 X496.61 Y462.57 Z10.00 F3000
G1 X498.52 Y459.60 Z10.00 F3000
G1 X500.39 Y456.28 Z10.00 F3000
G1 X502.19 Y452.63 Z10.00 F3000
G1 X505.63 Y444.44 Z10.00 F3000
G1 X508.80 Y435.24 Z10.00 F3000
G1 X511.69 Y425.24 Z10.00 F3000
G0 X511.69 Y425.24 Z20.00 F2500
